# Blender MTL File: 'None'
# Material Count: 3

newmtl Piano_Bench_Glossy_Coating
Ns 225.000000
Ka 1.000000 1.000000 1.000000
Kd 0.010960 0.010960 0.010960
Ks 0.500000 0.500000 0.500000
Ke 0.000000 0.000000 0.000000
Ni 1.000000
d 1.000000
illum 2

newmtl Piano_Bench_Leather
Ns 225.000000
Ka 1.000000 1.000000 1.000000
Kd 0.010960 0.010960 0.010960
Ks 0.500000 0.500000 0.500000
Ke 0.000000 0.000000 0.000000
Ni 1.000000
d 1.000000
illum 2

newmtl Piano_Bench_Matte_Coating
Ns 225.000000
Ka 1.000000 1.000000 1.000000
Kd 0.010960 0.010960 0.010960
Ks 0.500000 0.500000 0.500000
Ke 0.000000 0.000000 0.000000
Ni 1.000000
d 1.000000
illum 2
